C:\Users\nicro\IdeaProjects\PatientRegister\src\main\java\no\ntnu\idatt2001\EditPatientBox.java
C:\Users\nicro\IdeaProjects\PatientRegister\src\main\java\no\ntnu\idatt2001\model\PatientRegister.java
C:\Users\nicro\IdeaProjects\PatientRegister\src\main\java\module-info.java
C:\Users\nicro\IdeaProjects\PatientRegister\src\main\java\no\ntnu\idatt2001\App.java
C:\Users\nicro\IdeaProjects\PatientRegister\src\main\java\no\ntnu\idatt2001\model\Patient.java
C:\Users\nicro\IdeaProjects\PatientRegister\src\main\java\no\ntnu\idatt2001\model\PatientDataReader.java
C:\Users\nicro\IdeaProjects\PatientRegister\src\main\java\no\ntnu\idatt2001\PrimaryController.java
C:\Users\nicro\IdeaProjects\PatientRegister\src\main\java\no\ntnu\idatt2001\NodeFactory.java
C:\Users\nicro\IdeaProjects\PatientRegister\src\main\java\no\ntnu\idatt2001\AddPatientBox.java
